cores/cps15/ver/game/wof_coin.vcd
$comment
TOOL:	simvision	15.20-s050
$end

$date
    Nov 21, 2020 07:34:57
$end

$timescale
    1ps
$end


$scope module mist_test $end

$scope module UUT $end

$scope module u_game $end

$scope module u_sound $end
$var wire 24 ! cpu2dsp0 [23:0] $end
$upscope $end

$upscope $end

$upscope $end

$upscope $end

$enddefinitions $end
#0
$dumpvars
bx !
$end
#1321104772477
b110111100000000000000000 !
#1321155653989
b110111110000000000101110 !
#1321195659109
b111000000000000000000000 !
#1321239289693
b111000010000000000110000 !
#1321279294813
b111001000011111111111111 !
#1321323175429
b111001010011111111111111 !
#1321363180549
b111001100011111111111111 !
#1321406811133
b111001110011111111111111 !
#1321446816253
b111000101111111111111111 !
#1321486821373
b110110100000110110110010 !
#1321530451957
b110111000000111000010001 !
#1321574207557
b111000110000000000111001 !
#1321615462837
b101110100000000000000000 !
#1321657843261
b1100000000000000000 !
#1321699848637
b100000000000000000 !
#1321738978645
b101110110000000000000000 !
#1321781359069
b11100000000000000000 !
#1321823614477
b10100000000000000000 !
#1321884497269
b101111000000000000000000 !
#1321926877693
b101100000000000000000 !
#1321968883069
b100100000000000000000 !
#1322011638541
b101111010000000000000000 !
#1322050393501
b111100000000000000000 !
#1322092398877
b110100000000000000000 !
#1322135154349
b101111100000000000000000 !
#1322177534773
b1001100000000000000000 !
#1322219665165
b1000100000000000000000 !
#1322258795173
b101111110000000000000000 !
#1322301175597
b1011100000000000000000 !
#1322343180973
b1010100000000000000000 !
#1322385936445
b110000000000000000000000 !
#1322424691405
b1101100000000000000000 !
#1322466696781
b1100100000000000000000 !
#1322509452253
b110000010000000000000000 !
#1322551832677
b1111100000000000000000 !
#1322593838053
b1110100000000000000000 !
#1322632968061
b110000100000000000000000 !
#1322675348485
b10001100000000000000000 !
#1322717353861
b10000100000000000000000 !
#1322760109333
b110000110000000000000000 !
#1322802489757
b10011100000000000000000 !
#1322844495133
b10010100000000000000000 !
#1322883625141
b110001000000000000000000 !
#1322926005565
b10101100000000000000000 !
#1322968010941
b10100100000000000000000 !
#1323010891429
b110001010000000000000000 !
#1323049646389
b10111100000000000000000 !
#1323091651765
b10110100000000000000000 !
#1323134407237
b110001100000000000000000 !
#1323176787661
b11001100000000000000000 !
#1323218793037
b11000100000000000000000 !
#1323257923045
b110001110000000000000000 !
#1323300428485
b11011100000000000000000 !
#1323342433861
b11010100000000000000000 !
#1323385189333
b110010000000000000000000 !
#1323427569757
b11101100000000000000000 !
#1323465949669
b11100100000000000000000 !
#1323508705141
b110010010000000000000000 !
#1323551085565
b11111100000000000000000 !
#1323593090941
b11110100000000000000000 !
#1323634721269
b110011010000000000000000 !
#1323674351341
b110101100000000000000001 !
#1323717856909
b110100010000000000000000 !
#1323757486981
b110101110000000000000001 !
#1323800992549
b110101010000000000000000 !
#1323840622621
b110110000000000000000001 !
#1397986362061
b101110100000000000000000 !
#1398006989701
b1100000000000000000 !
#1398045369613
b100000000000000000 !
#1398084499621
b101110110000000000000000 !
#1398126880045
b11100000000000000000 !
#1398168885421
b10100000000000000000 !
#1398211640893
b101111000000000000000000 !
#1398254146333
b101100000000000000000 !
#1398292526245
b100100000000000000000 !
#1398335281717
b101111010000000000000000 !
#1398377662141
b111100000000000000000 !
#1398419667517
b110100000000000000000 !
#1398462422989
b101111100000000000000000 !
#1398501177949
b1001100000000000000000 !
#1398543183325
b1000100000000000000000 !
#1398586063813
b101111110000000000000000 !
#1398628444237
b1011100000000000000000 !
#1398670449613
b1010100000000000000000 !
#1398709579621
b110000000000000000000000 !
#1398751960045
b1101100000000000000000 !
#1398793965421
b1100100000000000000000 !
#1398836720893
b110000010000000000000000 !
#1398875475853
b1111100000000000000000 !
#1398917481229
b1110100000000000000000 !
#1398960236701
b110000100000000000000000 !
#1399002617125
b10001100000000000000000 !
#1399044622501
b10000100000000000000000 !
#1399083752509
b110000110000000000000000 !
#1399126132933
b10011100000000000000000 !
#1399168138309
b10010100000000000000000 !
#1399211018797
b110001000000000000000000 !
#1399253399221
b10101100000000000000000 !
#1399291779133
b10100100000000000000000 !
#1399334534605
b110001010000000000000000 !
#1399376915029
b10111100000000000000000 !
#1399418920405
b10110100000000000000000 !
#1399461675877
b110001100000000000000000 !
#1399500430837
b11001100000000000000000 !
#1399542686245
b11000100000000000000000 !
#1399585441717
b110001110000000000000000 !
#1399627822141
b11011100000000000000000 !
#1399669952533
b11010100000000000000000 !
#1399709082541
b110010000000000000000000 !
#1399751462965
b11101100000000000000000 !
#1399793468341
b11100100000000000000000 !
#1399836223813
b110010010000000000000000 !
#1399874978773
b11111100000000000000000 !
#1399916984149
b11110100000000000000000 !
#1399958614477
b110011010000000000000000 !
#1400001870013
b110101100000000000000001 !
#1400042125165
b110100010000000000000000 !
#1400085380701
b110101110000000000000001 !
#1400125260805
b110101010000000000000000 !
#1400168516341
b110110000000000000000001 !
#6998704037173
b101110100000000000000000 !
#6998739166669
b1100000000000000000 !
#6998781172045
b100000000000000000 !
#6998820302053
b101110110000000000000000 !
#6998862682477
b11100000000000000000 !
#6998904687853
b10100000000000000000 !
#6998947568341
b101111000000000000000000 !
#6998986323301
b101100000000000000000 !
#6999028328677
b100100000000000000000 !
#6999071334181
b101111010000000000000000 !
#6999113714605
b111100000000000000000 !
#6999155719981
b110100000000000000000 !
#6999194975005
b101111100000000000000000 !
#6999237605461
b1001100000000000000000 !
#6999279610837
b1000100000000000000000 !
#6999322366309
b101111110000000000000000 !
#6999361121269
b1011100000000000000000 !
#6999403126645
b1010100000000000000000 !
#6999445882117
b110000000000000000000000 !
#6999488387557
b1101100000000000000000 !
#6999530392933
b1100100000000000000000 !
#6999569522941
b110000010000000000000000 !
#6999611903365
b1111100000000000000000 !
#6999653908741
b1110100000000000000000 !
#6999696664213
b110000100000000000000000 !
#6999735419173
b10001100000000000000000 !
#6999777424549
b10000100000000000000000 !
#6999820180021
b110000110000000000000000 !
#6999862560445
b10011100000000000000000 !
#6999904815853
b10010100000000000000000 !
#6999943945861
b110001000000000000000000 !
#6999986326285
b10101100000000000000000 !
#7000028331661
b10100100000000000000000 !
#7000071087133
b110001010000000000000000 !
#7000113467557
b10111100000000000000000 !
#7000151847469
b10110100000000000000000 !
#7000194602941
b110001100000000000000000 !
#7000236983365
b11001100000000000000000 !
#7000278988741
b11000100000000000000000 !
#7000321744213
b110001110000000000000000 !
#7000360499173
b11011100000000000000000 !
#7000402504549
b11010100000000000000000 !
#7000445260021
b110010000000000000000000 !
#7000487640445
b11101100000000000000000 !
#7000529645821
b11100100000000000000000 !
#7000568900845
b110010010000000000000000 !
#7000611531301
b11111100000000000000000 !
#7000653536677
b11110100000000000000000 !
#7000695292021
b110011010000000000000000 !
#7000734922093
b110101100000000000000001 !
#7000778427661
b110100010000000000000000 !
#7000821683197
b110101110000000000000001 !
#7000861563301
b110101010000000000000000 !
#7000925196445
b110110000000000000000001 !
#7949510224789
b101110100000000000000000 !
#7949559856141
b1100000000000000000 !
#7949601861517
b100000000000000000 !
#7949641741621
b100000000000000100100000 !
#7949967283285
b101110110000000000000000 !
#7950017039653
b11100000000000000000 !
#7950059045029
b10100000000000000000 !
#7950098925133
b100000010000000100100000 !
#7950424341781
b101111000000000000000000 !
#7950473973133
b101100000000000000000 !
#7950516103525
b100100000000000000000 !
#7950559734109
b100000100000000100100000 !
#7950885525805
b101111010000000000000000 !
#7950931531693
b111100000000000000000 !
#7950973662085
b110100000000000000000 !
#7951017417685
b100000110000000100100000 !
#7951342709317
b101111100000000000000000 !
#7951392340669
b1001100000000000000000 !
#7951430720581
b1000100000000000000000 !
#7951474226149
b100001000000000100100000 !
#7951799517781
b101111110000000000000000 !
#7951849149133
b1011100000000000000000 !
#7951891154509
b1010100000000000000000 !
#7951931034613
b100001010000000100100000 !
#7952256451261
b110000000000000000000000 !
#7952306082613
b1101100000000000000000 !
#7952348338021
b1100100000000000000000 !
#7952391843589
b100001100000000100100000 !
#7952717385253
b110000010000000000000000 !
#7952763391141
b1111100000000000000000 !
#7952805396517
b1110100000000000000000 !
#7952848902085
b100001110000000100100000 !
#7953195071389
b110000100000000000000000 !
#7953222949957
b10001100000000000000000 !
#7953265080349
b10000100000000000000000 !
#7953304960453
b100010000000000100100000 !
#7953630377101
b110000110000000000000000 !
#7953680008453
b10011100000000000000000 !
#7953722013829
b10010100000000000000000 !
#7953765519397
b100010010000000100100000 !
#7954090936045
b110001000000000000000000 !
#7954140692413
b10101100000000000000000 !
#7954179072325
b10100100000000000000000 !
#7954222577893
b100010100000000100100000 !
#7957758030373
b100000000000000000 !
#7957803661213
b10000000000000000 !
#7957844416429
b1010110001010111010 !
#7957887796981
b1000001001110101110 !
#7957926551941
b11110001000000000011000 !
#7958364858037
b100000000000000000 !
#7958386735837
b100100110010011111111111 !
#7958426865973
b110110010000011111111111 !
#7958470496557
b101110100000000000000000 !
#7958511126757
b10000000000000000 !
#7958551756957
b111000000000000000 !
#7958876173477
b1100000010100111010 !
#7958982437077
b100011001011000000 !
#7959760786693
b10100000000000000000 !
#7959802917085
b10010000000000000000 !
#7959843672301
b11010110001010111010 !
#7959883302373
b11000001001110101110 !
#7959925807813
b1000000000011000 !
#7960363113781
b10100000000000000000 !
#7960384991581
b100100110010011111111111 !
#7960424996701
b110110010000011111111111 !
#7960468752301
b101110110000000000000000 !
#7960509382501
b10010000000000000000 !
#7960549887685
b10111000000000000000 !
#7960874054173
b11100000010100111010 !
#7960979817709
b10100010011000000000 !
#7961870431693
b100100000000000000000 !
#7961898435277
b100010000001111000000 !
#7961924688637
b101010100101111000001 !
#7961968194205
b101000011100111010110 !
#7962007074181
b10001000000000010101 !
#7962444130117
b100100000000000000000 !
#7962466132933
b100100110010011111111111 !
#7962509763517
b110110010000011111111111 !
#7962549768637
b101111000010000110001000 !
#7962590273821
b100010000001111000000 !
#7962634404469
b100111000000000000000 !
#7962958820989
b101100000010100111010 !
#7963045832125
b100100000001011010100 !
#7963915318405
b110100000000000000000 !
#7963964574709
b110010000001010000010 !
#7964008955389
b111010100110000101010 !
#7964048585461
b111000010111110011101 !
#7964090965885
b100001000000000010110 !
#7964471639605
b110100000000000000000 !
#7964508019261
b100100110010011111111111 !
#7964548024381
b110110010000011111111111 !
#7964591904997
b101111010010000110001000 !
#7964640911269
b110010000001010000010 !
#7964674165525
b110111000000000000000 !
#7965000832333
b111100000010100111010 !
#7965174354541
b110100000100000000000 !
#7965953454253
b1000100000000000000000 !
#7966006336021
b1000011000000111110100 !
#7966047091237
b1001011100101100001100 !
#7966090471789
b1001000011100010000101 !
#7966129226749
b110001000000000010101 !
#7966510025485
b1000100000000000000000 !
#7966546405141
b100100110010011111111111 !
#7966590035725
b110110010000011111111111 !
#7966630040845
b101111100000101001010000 !
#7966670671045
b1000011000000111110100 !
#7966714926709
b1000111000000000000000 !
#7967039218213
b1001100000010101010111 !
#7967131355005
b1000100000010000000000 !
#7967909579605
b1010100000000000000000 !
#7967937083125
b1010011000000100000000 !
#7967963336485
b1011011110011110001000 !
#7968002966557
b1011000100001101100001 !
#7968045346981
b1000001000000000011000 !
#7968426145717
b1010100000000000000000 !
#7968462650389
b100100110010011111111111 !
#7968502780525
b110110010000011111111111 !
#7968546411109
b101111110000101001010000 !
#7968586916293
b1010011000000100000000 !
#7968627421477
b1010111000000000000000 !
#7968952463077
b1011100000010101110110 !
#7969069353037
b1010100000110010110000 !
#7969849077829
b1100100000000000000000 !
#7969880206813
b1100010000000000000000 !
#7969920962029
b1101010111001101011101 !
#7969960592101
b1101000000000000001110 !
#7970002972525
b1010001000000000011010 !
#7970440778557
b1100100000000000000000 !
#7970462656357
b100100110010011111111111 !
#7970502661477
b110110010000011111111111 !
#7970542916629
b110000000000000000000000 !
#7970587047277
b1100010000000000000000 !
#7970627552461
b1100111000000000000000 !
#7970952594061
b1101100000110110000100 !
#7971054107053
b1100100001000111100000 !
#7971909716557
b10000100000000000000000 !
#7971958972861
b10000010000000000000000 !
#7972003353541
b10001010111010101011001 !
#7972042983613
b10001000101000101010001 !
#7972085364037
b1110001000000000010111 !
#7972558049533
b10000100000000000000000 !
#7972583677813
b100100110010011111111111 !
#7972627308397
b110110010000011111111111 !
#7972667313517
b110000100000000000000000 !
#7972711444165
b10000010000000000000000 !
#7972751949349
b10000111000000000000000 !
#7973098118653
b10001100000010101110110 !
#7973195131069
b10000100000110010110000 !
#7973974480813
b10010100000000000000000 !
#7974002234365
b10010010000000000000000 !
#7974042989581
b10011010111011111100010 !
#7974082619653
b10011000100001010111110 !
#7974125000077
b10000001000000000010010 !
#7974947730373
b10100100000000000000000 !
#7975000612141
b10100010000000000000000 !
#7975041492373
b10101010111011111100010 !
#7975084747909
b10101000100001010111110 !
#7975123627885
b10010001000000000010010 !
#7975446044149
b10100100000000000000000 !
#7975464421501
b100100110010011111111111 !
#7975500801157
b110110010000011111111111 !
#7975541056309
b110001000010000110001000 !
#7975581561493
b10100010000000000000000 !
#7975625692141
b10100111000000000000000 !
#7975949483581
b10101100000010000101001 !
#7976046370981
b10100100000111001000000 !
#7977323784469
b1100000010100111010 !
#7977429923053
b100011001011000000 !
#7977932362357
b11100000010100111010 !
#7978038750973
b10100010011000000000 !
#7978540690213
b101100000010100111010 !
#7978627826365
b100100000001011010100 !
#7979129765605
b111100000010100111010 !
#7979226402973
b110100000100000000000 !
#7979727967165
b1001100000010101010111 !
#7979819978941
b1000100000010000000000 !
#7980322668277
b1011100000010101110110 !
#7980419430661
b1010100000110010110000 !
#7980922245013
b1101100000110110000100 !
#7981024008037
b1100100001000111100000 !
#7981667465389
b10001100000010101110110 !
#7981764477805
b10000100000110010110000 !
#7982380306621
b10101100000010000011101 !
#7982477444053
b10100100000111001000000 !
#7989564226045
b1100000010001011111 !
#7989670489645
b100011001011000000 !
#7990181805085
b11100000010001011111 !
#7990287568621
b10100010011000000000 !
#7990798509013
b101100000010100011011 !
#7990886145229
b100100000001011010100 !
#7991397835717
b111100000010100100101 !
#7991494348069
b110100000100000000000 !
#7992004663381
b1001100000010101000010 !
#7992097175221
b1000100000010000000000 !
#7992607865581
b1011100000010101110110 !
#7992704502949
b1010100000110010110000 !
#7993235945965
b1101100000110110000100 !
#7993337333941
b1100100001000111100000 !
#7993969539853
b10001100000010101101011 !
#7994066177221
b10000100000110010110000 !
#7994646001429
b10101100000010000010001 !
#7994743138861
b10100100000111001000000 !
#8005526518957
b1100000010001011111 !
#8005632782557
b100011001011000000 !
#8006104217893
b11100000010001011111 !
#8006210356477
b10100010011000000000 !
#8006680916701
b101100000010100011011 !
#8006768302885
b100100000001011010100 !
#8007238613077
b111100000010100100101 !
#8007335500477
b110100000100000000000 !
#8007805310605
b1001100000010101000010 !
#8007897322381
b1000100000010000000000 !
#8008368132637
b1011100000010101110110 !
#8008464895021
b1010100000110010110000 !
#8008935330229
b1101100000110110000100 !
#8009056970797
b1100100001000111100000 !
#8009648671525
b10001100000010101101011 !
#8009745433909
b10000100000110010110000 !
#8010326133229
b10101100000010000000100 !
#8010422770597
b10100100000111001000000 !
#8021887862941
b101100000010100011011 !
#8021975124109
b100100000001011010100 !
#8022445434301
b111100000010100100101 !
#8022542196685
b110100000100000000000 !
#8023012756909
b1001100000010101000010 !
#8023105393765
b1000100000010000000000 !
#8023575453925
b1011100000010101110110 !
#8023672466341
b1010100000110010110000 !
#8024143401613
b1101100000110110000100 !
#8024244789589
b1100100001000111100000 !
#8024862368629
b10001100000010100011101 !
#8024959256029
b10000100000110010110000 !
#8025560958037
b10101100000001111111000 !
#8025657970453
b10100100000111001000000 !
#8037518613421
b1100000010000010100 !
#8037624877021
b100011001011000000 !
#8038086561109
b11100000010000010100 !
#8038192824709
b10100010011000000000 !
#8038663634965
b101100000010100011011 !
#8038750771117
b100100000001011010100 !
#8039220206197
b111100000010100100101 !
#8039316968581
b110100000100000000000 !
#8039786528677
b1001100000010101000010 !
#8039878290421
b1000100000010000000000 !
#8040348975661
b1011100000010101110110 !
#8040446113093
b1010100000110010110000 !
#8040917173381
b1101100000110110000100 !
#8041019311453
b1100100001000111100000 !
#8041622263621
b10001100000010011001111 !
#8041718900989
b10000100000110010110000 !
#8042301100501
b10101100000001111101100 !
#8042398112917
b10100100000111001000000 !
#8053524661933
b1100000001111001001 !
#8053630800517
b100011001011000000 !
#8054093484733
b11100000001111001001 !
#8054199498301
b10100010011000000000 !
#8054670058525
b101100000010100011011 !
#8054757944773
b100100000001011010100 !
#8055228755029
b111100000010100100101 !
#8055325517413
b110100000100000000000 !
#8055795577573
b1001100000010101000010 !
#8055887464333
b1000100000010000000000 !
#8056357274461
b1011100000010101110110 !
#8056454036845
b1010100000110010110000 !
#8056924097005
b1101100000110110000100 !
#8057026110061
b1100100001000111100000 !
#8057628937213
b10001100000010010000001 !
#8057725699597
b10000100000110010110000 !
#8058307149013
b10101100000001111011111 !
#8058404036413
b10100100000111001000000 !
#8069522334373
b1100000001101111111 !
#8069628973021
b100011001011000000 !
#8070091407205
b11100000001101111111 !
#8070197295757
b10100010011000000000 !
#8070693984325
b101100000010011010000 !
#8070781745557
b100100000001011010100 !
#8071278184093
b111100000010011011011 !
#8071375071493
b110100000100000000000 !
#8071869759805
b1001100000010100000010 !
#8071962146629
b1000100000010000000000 !
#8072457084973
b1011100000010100110101 !
#8072553847357
b1010100000110010110000 !
#8073024157549
b1101100000110110000100 !
#8073145923133
b1100100001000111100000 !
#8073728622709
b10001100000010000110011 !
#8073825385093
b10000100000110010110000 !
#8074406584477
b10101100000001111010011 !
#8074503846925
b10100100000111001000000 !
#8085331482685
b100000000000000000 !
#8085382364197
b100100110010011111111111 !
#8085425994781
b110110010000011111111111 !
#8085465999901
b101110100000000000000000 !
#8085510130549
b10000000000000000 !
#8085550635733
b111000000000000000 !
#8085876302413
b1100000010100111010 !
#8085982440997
b100011001011000000 !
#8086407995461
b10100000000000000000 !
#8086426247797
b100100110010011111111111 !
#8086466252917
b110110010000011111111111 !
#8086509883501
b101110110000000000000000 !
#8086550388685
b10010000000000000000 !
#8086590893869
b10111000000000000000 !
#8086916685565
b11100000010100111010 !
#8087022949165
b10100010011000000000 !
#8087449378741
b100100000000000000000 !
#8087467631077
b100100110010011111111111 !
#8087507761213
b110110010000011111111111 !
#8087548141381
b101111000010000110001000 !
#8087592397045
b100010000001111000000 !
#8087632902229
b100111000000000000000 !
#8087958568909
b101100000010100111010 !
#8088046080109
b100100000001011010100 !
#8088472134637
b110100000000000000000 !
#8088508514293
b100100110010011111111111 !
#8088548519413
b110110010000011111111111 !
#8088588774565
b101111010010000110001000 !
#8088632905213
b110010000001010000010 !
#8088673410397
b110111000000000000000 !
#8088998326981
b111100000010100111010 !
#8089115717005
b110100000100000000000 !
#8089540146325
b1000100000000000000000 !
#8089591027837
b100100110010011111111111 !
#8089631032957
b110110010000011111111111 !
#8089671038077
b101111100000101001010000 !
#8089715168725
b1000011000000111110100 !
#8089755798925
b1000111000000000000000 !
#8090080715509
b1001100000010101010111 !
#8090173602397
b1000100000010000000000 !
#8090598031717
b1010100000000000000000 !
#8090630785909
b100100110010011111111111 !
#8090670791029
b110110010000011111111111 !
#8090714421613
b101111110000101001010000 !
#8090755051813
b1010011000000100000000 !
#8090795556997
b1010111000000000000000 !
#8091121348693
b1011100000010101110110 !
#8091217861045
b1010100000110010110000 !
#8091770181733
b1100100000000000000000 !
#8091795684997
b100100110010011111111111 !
#8091839315581
b110110010000011111111111 !
#8091879320701
b110000000000000000000000 !
#8091919950901
b1100010000000000000000 !
#8091964081549
b1100111000000000000000 !
#8092288498069
b1101100000110110000100 !
#8092390136077
b1100100001000111100000 !
#8092937206093
b10000100000000000000000 !
#8092962709357
b100100110010011111111111 !
#8093002964509
b110110010000011111111111 !
#8093066972701
b110000100000000000000000 !
#8093089350565
b10000010000000000000000 !
#8093129855749
b10000111000000000000000 !
#8093455522429
b10001100000010101110110 !
#8093552534845
b10000100000110010110000 !
#8094292254517
b10101100000001111000110 !
#8094389266933
b10100100000111001000000 !
#8101568310733
b1100000010100111010 !
#8101674449317
b100011001011000000 !
#8102177138653
b11100000010100111010 !
#8102283527269
b10100010011000000000 !
#8102785591525
b101100000010100111010 !
#8102872977709
b100100000001011010100 !
#8103376167109
b111100000010100111010 !
#8103472804477
b110100000100000000000 !
#8103974493685
b1001100000010101010111 !
#8104066755493
b1000100000010000000000 !
#8104570069909
b1011100000010101110110 !
#8104666707277
b1010100000110010110000 !
#8105190899365
b1101100000110110000100 !
#8105292537373
b1100100001000111100000 !
#8105916242197
b10001100000010101110110 !
#8106013129597
b10000100000110010110000 !
#8106594328981
b10101100000001110111010 !
#8106691091365
b10100100000111001000000 !
#8117580860077
b1100000010001011111 !
#8117687873773
b100011001011000000 !
#8118199064197
b11100000010001011111 !
#8118304952749
b10100010011000000000 !
#8118816018157
b101100000010100011011 !
#8118903154309
b100100000001011010100 !
#8119414844797
b111100000010100100101 !
#8119511857213
b110100000100000000000 !
#8120022547573
b1001100000010101000010 !
#8120114934397
b1000100000010000000000 !
#8120626624885
b1011100000010101110110 !
#8120723512285
b1010100000110010110000 !
#8121255330349
b1101100000110110000100 !
#8121357093373
b1100100001000111100000 !
#8121989799349
b10001100000010101101011 !
#8122086436717
b10000100000110010110000 !
#8122667386069
b10101100000001110101110 !
#8122764023437
b10100100000111001000000 !
#8133541902829
b1100000010001011111 !
#8133648416461
b100011001011000000 !
#8134119351733
b11100000010001011111 !
#8134225365301
b10100010011000000000 !
#8134695675493
b101100000010100011011 !
#8134782811645
b100100000001011010100 !
#8135253121837
b111100000010100100101 !
#8135349884221
b110100000100000000000 !
#8135819194285
b1001100000010101000010 !
#8135911081045
b1000100000010000000000 !
#8136381141205
b1011100000010101110110 !
#8136478028605
b1010100000110010110000 !
#8136948338797
b1101100000110110000100 !
#8137070979493
b1100100001000111100000 !
#8137663430317
b10001100000010101101011 !
#8137760192701
b10000100000110010110000 !
#8138341267069
b10101100000001110100001 !
#8138437904437
b10100100000111001000000 !
#8149908122437
b101100000010100011011 !
#8149995383605
b100100000001011010100 !
#8150465568781
b111100000010100100101 !
#8150562456181
b110100000100000000000 !
#8151031891261
b1001100000010101000010 !
#8151123778021
b1000100000010000000000 !
#8151593838181
b1011100000010101110110 !
#8151690725581
b1010100000110010110000 !
#8152160910757
b1101100000110110000100 !
#8152262173717
b1100100001000111100000 !
#8152879127677
b10001100000010100011101 !
#8152976140093
b10000100000110010110000 !
#8153576841973
b10101100000001110010101 !
#8153673979405
b10100100000111001000000 !
#8165534622373
b1100000010000010100 !
#8165640885973
b100011001011000000 !
#8166104320285
b11100000010000010100 !
#8166210833917
b10100010011000000000 !
#8166681894205
b101100000010100011011 !
#8166769030357
b100100000001011010100 !
#8167239465565
b111100000010100100101 !
#8167336227949
b110100000100000000000 !
#8167806163093
b1001100000010101000010 !
#8167898049853
b1000100000010000000000 !
#8168368860109
b1011100000010101110110 !
#8168465997541
b1010100000110010110000 !
#8168935807669
b1101100000110110000100 !
#8169037445677
b1100100001000111100000 !
#8169640272829
b10001100000010011001111 !
#8169736785181
b10000100000110010110000 !
#8170317734533
b10101100000001110001001 !
#8170414496917
b10100100000111001000000 !
#8181535920277
b1100000001111001001 !
#8181642558925
b100011001011000000 !
#8182103367901
b11100000001111001001 !
#8182209506485
b10100010011000000000 !
#8182679316613
b101100000010100011011 !
#8182766827813
b100100000001011010100 !
#8183238388165
b111100000010100100101 !
#8183335150549
b110100000100000000000 !
#8183805335725
b1001100000010101000010 !
#8183897597533
b1000100000010000000000 !
#8184368032741
b1011100000010101110110 !
#8184464670109
b1010100000110010110000 !
#8184935480365
b1101100000110110000100 !
#8185037118373
b1100100001000111100000 !
#8185639570477
b10001100000010010000001 !
#8185736707909
b10000100000110010110000 !
#8186316907165
b10101100000001101111100 !
#8186413669549
b10100100000111001000000 !
#8197539843517
b1100000001101111111 !
#8197646482165
b100011001011000000 !
#8198108291269
b11100000001101111111 !
#8198214179821
b10100010011000000000 !
#8198710368325
b101100000010011010000 !
#8198797379461
b100100000001011010100 !
#8199293317933
b111100000010011011011 !
#8199390830413
b110100000100000000000 !
#8199887643997
b1001100000010100000010 !
#8199980280853
b1000100000010000000000 !
#8200475719261
b1011100000010100110101 !
#8200572481645
b1010100000110010110000 !
#8201042791837
b1101100000110110000100 !
#8201164432405
b1100100001000111100000 !
#8201745756805
b10001100000010000110011 !
#8201842519189
b10000100000110010110000 !
#8202422718445
b10101100000001101110000 !
#8202519230797
b10100100000111001000000 !
#8213345866429
b100000000000000000 !
#8213382246085
b100100110010011111111111 !
#8213422251205
b110110010000011111111111 !
#8213466131821
b101110100000000000000000 !
#8213506637005
b10000000000000000 !
#8213547142189
b111000000000000000 !
#8213872183789
b1100000010100111010 !
#8213978322373
b100011001011000000 !
#8214403126741
b10100000000000000000 !
#8214421379077
b100100110010011111111111 !
#8214465009661
b110110010000011111111111 !
#8214505014781
b101110110000000000000000 !
#8214545644981
b10010000000000000000 !
#8214589775629
b10111000000000000000 !
#8214914567197
b11100000010100111010 !
#8215020330733
b10100010011000000000 !
#8215444885069
b100100000000000000000 !
#8215463137405
b100100110010011111111111 !
#8215503142525
b110110010000011111111111 !
#8215546773109
b101111000010000110001000 !
#8215587278293
b100010000001111000000 !
#8215631408941
b100111000000000000000 !
#8215955825461
b101100000010100111010 !
#8216043086629
b100100000001011010100 !
#8216469891253
b110100000000000000000 !
#8216502645445
b100100110010011111111111 !
#8216546401045
b110110010000011111111111 !
#8216586781213
b101111010010000110001000 !
#8216627536429
b110010000001010000010 !
#8216671667077
b110111000000000000000 !
#8216997083725
b111100000010100111010 !
#8217114098701
b110100000100000000000 !
#8217538778053
b1000100000000000000000 !
#8217586034101
b100100110010011111111111 !
#8217629664685
b110110010000011111111111 !
#8217669669805
b101111100000101001010000 !
#8217710174989
b1000011000000111110100 !
#8217754305637
b1000111000000000000000 !
#8218078847173
b1001100000010101010111 !
#8218170858949
b1000100000010000000000 !
#8218595163253
b1010100000000000000000 !
#8218627917445
b100100110010011111111111 !
#8218667922565
b110110010000011111111111 !
#8218711553149
b101111110000101001010000 !
#8218752058333
b1010011000000100000000 !
#8218792563517
b1010111000000000000000 !
#8219117230069
b1011100000010101110110 !
#8219213992453
b1010100000110010110000 !
#8219764687933
b1100100000000000000000 !
#8219794441741
b100100110010011111111111 !
#8219834446861
b110110010000011111111111 !
#8219878077445
b110000000000000000000000 !
#8219918707645
b1100010000000000000000 !
#8219959212829
b1100111000000000000000 !
#8220283879381
b1101100000110110000100 !
#8220385267357
b1100100001000111100000 !
#8220931837309
b10000100000000000000000 !
#8220961091053
b100100110010011111111111 !
#8221001096173
b110110010000011111111111 !
#8221041101293
b110000100000000000000000 !
#8221091482741
b10000010000000000000000 !
#8221124987029
b10000111000000000000000 !
#8221450528693
b10001100000010101110110 !
#8221547416093
b10000100000110010110000 !
#8222288260909
b10101100000001101100011 !
#8222384898277
b10100100000111001000000 !
#8229584944765
b1100000010100111010 !
#8229691208365
b100011001011000000 !
#8230192772557
b11100000010100111010 !
#8230298536093
b10100010011000000000 !
#8230801225429
b101100000010100111010 !
#8230888611613
b100100000001011010100 !
#8231390925901
b111100000010100111010 !
#8231487438253
b110100000100000000000 !
#8231989627525
b1001100000010101010111 !
#8232081639301
b1000100000010000000000 !
#8232583203493
b1011100000010101110110 !
#8232679715845
b1010100000110010110000 !
#8233202532757
b1101100000110110000100 !
#8233304670829
b1100100001000111100000 !
#8233928625685
b10001100000010101110110 !
#8234025388069
b10000100000110010110000 !
#8234606087389
b10101100000001101010111 !
#8234702724757
b10100100000111001000000 !
#8245595493853
b1100000010001011111 !
#8245702382533
b100011001011000000 !
#8246214823117
b11100000010001011111 !
#8246321086717
b10100010011000000000 !
#8246831777077
b101100000010100011011 !
#8246919288277
b100100000001011010100 !
#8247429853621
b111100000010100100101 !
#8247526616005
b110100000100000000000 !
#8248037306365
b1001100000010101000010 !
#8248129068109
b1000100000010000000000 !
#8248639633453
b1011100000010101110110 !
#8248736395837
b1010100000110010110000 !
#8249267088757
b1101100000110110000100 !
#8249368476733
b1100100001000111100000 !
#8250002682901
b10001100000010101101011 !
#8250099820333
b10000100000110010110000 !
#8250680644669
b10101100000001101001011 !
#8250777657085
b10100100000111001000000 !
#8261559036925
b1100000010001011111 !
#8261665175509
b100011001011000000 !
#8262135860749
b11100000010001011111 !
#8262241874317
b10100010011000000000 !
#8262711434413
b101100000010100011011 !
#8262798820597
b100100000001011010100 !
#8263269130789
b111100000010100100101 !
#8263365893173
b110100000100000000000 !
#8263835203237
b1001100000010101000010 !
#8263927215013
b1000100000010000000000 !
#8264397400189
b1011100000010101110110 !
#8264494662637
b1010100000110010110000 !
#8264964972829
b1101100000110110000100 !
#8265086863429
b1100100001000111100000 !
#8265678189109
b10001100000010101101011 !
#8265775076509
b10000100000110010110000 !
#8266355650813
b10101100000001100111110 !
#8266452913261
b10100100000111001000000 !
#8277922381165
b101100000010100011011 !
#8278009392301
b100100000001011010100 !
#8278479077413
b111100000010100100101 !
#8278575714781
b110100000100000000000 !
#8279045024845
b1001100000010101000010 !
#8279137161637
b1000100000010000000000 !
#8279607221797
b1011100000010101110110 !
#8279704234213
b1010100000110010110000 !
#8280174294373
b1101100000110110000100 !
#8280275682349
b1100100001000111100000 !
#8280892261261
b10001100000010100011101 !
#8280989273677
b10000100000110010110000 !
#8281589475493
b10101100000001100110010 !
#8281686237877
b10100100000111001000000 !
#8293555631965
b1100000010000010100 !
#8293662020581
b100011001011000000 !
#8294123704669
b11100000010000010100 !
#8294230218301
b10100010011000000000 !
#8294700153445
b101100000010100011011 !
#8294787664645
b100100000001011010100 !
#8295257349757
b111100000010100100101 !
#8295354112141
b110100000100000000000 !
#8295824422333
b1001100000010101000010 !
